{
  "version": "2019.0.2",
  "build": {
    "name": "wuiframework/wui-updater-linux"
  },
  "container": {
    "name": "wui-updater",
    "bindPorts": [
      {
        "containerPort": 22,
        "hostPort": 2222
      }
    ]
  }
}